{
  "pages":[
    "pages/index/index",
    "pages/tab/user",
    "pages/tab/org",
    "pages/tab/news",
    "pages/tab/meeting",
    "pages/user/verify",
    "pages/user/organization",
    "pages/user/profile",
    "pages/user/memorial",
    "pages/user/bless",
    "pages/user/score",
    "pages/user/due",
    "pages/list/album",
    "pages/list/exam",
    "pages/list/module",
    "pages/content/activity",
    "pages/content/photo",
    "pages/content/article",
    "pages/content/meeting",
    "pages/content/test",
    "pages/content/question",
    "pages/content/stream",
    "pages/content/chat",
    "pages/admin/task"
  ],
  "tabBar":{
    "color": "#000000",
    "borderStyle": "#000",
    "selectedColor":"#9999FF",
    "list":[
      {
        "iconPath": "icon/bottom-menu/home1.jpg",
        "selectedIconPath": "icon/bottom-menu/home.jpg",
        "pagePath": "pages/index/index",
        "text": "首页"
      },
      {
        "iconPath": "icon/bottom-menu/org1.jpg",
        "selectedIconPath": "icon/bottom-menu/org.jpg",
        "pagePath": "pages/tab/org",
        "text": "组织"
      },
      {
        "iconPath": "icon/bottom-menu/meeting1.jpg",
        "selectedIconPath": "icon/bottom-menu/meeting.jpg",
        "pagePath": "pages/tab/meeting",
        "text": "会议"
      },
      {
        "iconPath": "icon/bottom-menu/new1.jpg",
        "selectedIconPath": "icon/bottom-menu/new.jpg",
        "pagePath": "pages/tab/news",
        "text": "动态"
      },
      {
        "iconPath": "icon/bottom-menu/my1.jpg",
        "selectedIconPath": "icon/bottom-menu/my.jpg",
        "pagePath": "pages/tab/user",
        "text": "我的"
      }
    ]
  },
  "window":{
    "backgroundColor":"#F6F6F6",
    "backgroundTextStyle":"light",
    "comment": {
      "navigationBarBackgroundColor": "#F6F6F6",
      "navigationBarTextStyle":"black"
    },
    "navigationBarBackgroundColor": "#F6F6F6",
    "navigationBarTitleText": "党建云",
    "navigationBarTextStyle": "black",
    "onReachBottomDistance": 100
  }
}
